<svg width="51" height="18" viewBox="0 0 51 18" fill="none" xmlns="http://www.w3.org/2000/svg">
<path d="M19.3551 3.53853L10.4779 0L1.60065 3.53853V5.59535H19.3551V3.53853ZM6.16359 6.95347C6.42751 6.95347 6.64053 6.76008 6.64053 6.52161C6.64053 6.28241 6.42751 6.08901 6.16359 6.08901H3.34846C3.08527 6.08901 2.87152 6.28241 2.87152 6.52161C2.87152 6.76008 3.08527 6.95347 3.34846 6.95347H3.50769V13.1254H3.34774C3.08455 13.1254 2.8708 13.3188 2.8708 13.5572C2.8708 13.7957 3.08455 13.9898 3.34774 13.9898H6.16286C6.42678 13.9898 6.6398 13.7957 6.6398 13.5572C6.6398 13.3188 6.42678 13.1254 6.16286 13.1254H6.00437V6.95274H6.16286L6.16359 6.95347ZM11.8854 6.95347C12.1486 6.95347 12.3617 6.76008 12.3617 6.52161C12.3617 6.28241 12.1486 6.08901 11.8854 6.08901H9.06959C8.80567 6.08901 8.59265 6.28241 8.59265 6.52161C8.59265 6.76008 8.80567 6.95347 9.06959 6.95347H9.22809V13.1254H9.06959C8.80567 13.1254 8.59265 13.3188 8.59265 13.5572C8.59265 13.7957 8.80567 13.9898 9.06959 13.9898H11.8847C12.1479 13.9898 12.3609 13.7957 12.3609 13.5572C12.3609 13.3188 12.1479 13.1254 11.8847 13.1254H11.7255V6.95274H11.8847L11.8854 6.95347ZM17.6975 6.95347C17.9606 6.95347 18.1744 6.76008 18.1744 6.52161C18.1744 6.28241 17.9606 6.08901 17.6975 6.08901H14.8823C14.6184 6.08901 14.4054 6.28241 14.4054 6.52161C14.4054 6.76008 14.6184 6.95347 14.8823 6.95347H15.0408V13.1254H14.8823C14.6184 13.1254 14.4054 13.3188 14.4054 13.5572C14.4054 13.7957 14.6184 13.9898 14.8823 13.9898H17.6975C17.9606 13.9898 18.1744 13.7957 18.1744 13.5572C18.1744 13.3188 17.9606 13.1254 17.6975 13.1254H17.5382V6.95274H17.6982L17.6975 6.95347ZM2.05432 15.553H18.9C19.1508 15.553 19.3551 15.3676 19.3551 15.1415V14.8943C19.3551 14.6689 19.1508 14.4835 18.9007 14.4835H2.05505C1.80495 14.4835 1.60065 14.6682 1.60065 14.895V15.1422C1.60065 15.3676 1.80422 15.553 2.05432 15.553ZM20.0814 16.0466H0.873599C0.624222 16.0466 0.419922 16.232 0.419922 16.4581V16.8289C0.419922 17.0543 0.623495 17.2404 0.874326 17.2404H20.0814C20.3308 17.2404 20.5351 17.0551 20.5351 16.8282V16.4574C20.5351 16.232 20.3315 16.0466 20.0814 16.0466ZM28.0273 6.17626C27.8601 5.97414 27.6187 5.83455 27.3097 5.75166C27.5504 5.64479 27.7321 5.50519 27.8507 5.3278C27.9684 5.15112 28.0273 4.96209 28.0273 4.76433C28.0273 4.55058 27.9641 4.34846 27.8281 4.15143C27.6914 3.95368 27.5053 3.80972 27.269 3.71521C27.0327 3.62069 26.715 3.57561 26.3246 3.57561H24.3994V8.22871H26.3566C26.6837 8.22871 26.9557 8.20399 27.1832 8.15092C27.4101 8.09711 27.5962 8.02296 27.746 7.92044C27.8957 7.82156 28.023 7.67761 28.1233 7.48858C28.2273 7.29955 28.2774 7.09743 28.2774 6.87931C28.2774 6.6074 28.196 6.37329 28.0273 6.17553V6.17626ZM25.0755 4.12672H26.1072C26.4744 4.12672 26.7383 4.14707 26.888 4.19215C27.0378 4.23795 27.1556 4.31575 27.237 4.43498C27.3192 4.55058 27.3606 4.68581 27.3606 4.84213C27.3606 5.00717 27.3148 5.14313 27.2283 5.24927C27.1418 5.35688 27.0102 5.4354 26.8379 5.48047C26.7063 5.51683 26.4889 5.53428 26.1886 5.53428H25.0762V4.12599L25.0755 4.12672ZM27.469 7.27483C27.4013 7.3897 27.3148 7.47622 27.2101 7.53365C27.1054 7.59545 26.9738 7.63617 26.8197 7.66089C26.7288 7.67325 26.5747 7.68197 26.3566 7.68197H25.0762V6.08102H26.2657C26.5929 6.08102 26.8422 6.10573 27.0145 6.15954C27.1876 6.21261 27.3235 6.30349 27.4239 6.43072C27.5184 6.55796 27.5693 6.71064 27.5693 6.88367C27.5693 7.03199 27.5373 7.15922 27.469 7.2741V7.27483ZM32.178 7.8172C32.1504 7.67761 32.1366 7.34026 32.1366 6.80952V6.0483C32.1366 5.7931 32.1279 5.62007 32.1053 5.52119C32.069 5.36124 32.005 5.23328 31.9098 5.13077C31.8189 5.02753 31.6735 4.94173 31.4735 4.87557C31.2787 4.80578 31.0198 4.77233 30.7021 4.77233C30.38 4.77233 30.0987 4.81377 29.8573 4.89229C29.6123 4.97445 29.4262 5.08569 29.2989 5.23401C29.1717 5.3816 29.0765 5.57572 29.0227 5.81346L29.6399 5.89198C29.7075 5.64915 29.8122 5.48484 29.9525 5.39032C30.0936 5.29581 30.3161 5.25 30.6112 5.25C30.929 5.25 31.1696 5.31544 31.3288 5.4434C31.4466 5.54227 31.5055 5.70222 31.5055 5.93706C31.5055 5.95742 31.5055 6.00686 31.5012 6.08538C31.2612 6.16317 30.8832 6.22933 30.375 6.28241C30.1256 6.31149 29.9387 6.34057 29.8166 6.36965C29.6486 6.414 29.4989 6.4758 29.3622 6.55868C29.2262 6.64084 29.1172 6.75208 29.035 6.88731C28.9536 7.02327 28.9129 7.17522 28.9129 7.34026C28.9129 7.62381 29.0263 7.85428 29.2444 8.03532C29.4669 8.21708 29.7802 8.30723 30.1896 8.30723C30.4346 8.30723 30.6658 8.27015 30.8839 8.19599C31.102 8.12183 31.3288 7.9946 31.56 7.81357C31.5782 7.97352 31.6197 8.11384 31.6786 8.22071H32.3365C32.2595 8.09348 32.2057 7.95752 32.178 7.8172ZM31.5055 6.74772C31.5055 6.99855 31.4743 7.19122 31.4059 7.3199C31.315 7.48858 31.1791 7.62017 30.9879 7.71469C30.7974 7.8092 30.5793 7.85864 30.3386 7.85864C30.0936 7.85864 29.9075 7.8092 29.7802 7.70596C29.653 7.60418 29.5897 7.47622 29.5897 7.32354C29.5897 7.22466 29.6166 7.13451 29.6755 7.05235C29.7352 6.97019 29.8166 6.90839 29.9256 6.86695C30.0347 6.82188 30.2165 6.7848 30.4753 6.75208C30.9333 6.69392 31.2787 6.62412 31.5055 6.5376V6.74772ZM35.4425 5.65715C35.4934 5.77275 35.5152 5.94506 35.5152 6.17989V8.22871H36.1463V6.15954C36.1463 5.89562 36.1332 5.71095 36.1099 5.60407C36.0735 5.43903 36.0103 5.29871 35.9151 5.1802C35.8198 5.06024 35.6788 4.96645 35.4934 4.89157C35.3065 4.81814 35.0979 4.78106 34.8754 4.78106C34.3577 4.78106 33.9622 4.96645 33.6903 5.33652V4.85885H33.1225V8.22871H33.7579V6.38928C33.7579 5.95742 33.8531 5.66514 34.0487 5.50956C34.2436 5.35688 34.4755 5.27908 34.7438 5.27908C34.911 5.27908 35.0564 5.3118 35.1836 5.3816C35.3065 5.45139 35.393 5.54155 35.4425 5.65787V5.65715ZM40.1966 8.22871L38.6349 6.1101L40.0563 4.85885H39.2384L37.745 6.22933V3.57561H37.1139V8.22871H37.745V6.89167L38.19 6.50488L39.4201 8.22871H40.1966ZM24.0409 11.5368H25.7342V15.6431H26.4111V11.5368H28.1095V10.99H24.0409V11.5368ZM29.4218 12.3103C29.2989 12.3889 29.1673 12.5452 29.0219 12.7837V12.274H28.4548V15.6431H29.0808V13.8786C29.0808 13.6358 29.1172 13.4133 29.1855 13.2119C29.2357 13.0803 29.3127 12.9727 29.4218 12.8993C29.5309 12.8251 29.6581 12.788 29.7941 12.788C29.9482 12.788 30.103 12.8287 30.2572 12.9116L30.4753 12.3809C30.2528 12.2573 30.0391 12.1955 29.826 12.1955C29.6806 12.1955 29.5439 12.2318 29.4218 12.3103ZM33.8939 15.2323C33.867 15.092 33.8531 14.7547 33.8531 14.2239V13.4627C33.8531 13.2083 33.8444 13.0345 33.8212 12.9363C33.7848 12.7757 33.7216 12.6477 33.6263 12.5452C33.5354 12.4419 33.39 12.3562 33.1901 12.29C32.9952 12.2202 32.7364 12.1875 32.4187 12.1875C32.0959 12.1875 31.8145 12.2282 31.5739 12.3067C31.3288 12.3889 31.1427 12.5001 31.0155 12.6484C30.8883 12.796 30.793 12.9901 30.7385 13.2279L31.3565 13.3064C31.4241 13.0636 31.5281 12.8993 31.6691 12.8047C31.8101 12.7102 32.0326 12.6644 32.3278 12.6644C32.6455 12.6644 32.8862 12.7299 33.0454 12.8578C33.1632 12.9567 33.2221 13.1174 33.2221 13.3522C33.2221 13.3718 33.2221 13.4213 33.2177 13.4998C32.9771 13.5776 32.5997 13.6438 32.0908 13.6976C31.8414 13.7266 31.6553 13.755 31.5331 13.7833C31.3652 13.8291 31.2154 13.8909 31.0787 13.9724C30.9428 14.0553 30.8337 14.1665 30.7516 14.3025C30.6701 14.4377 30.6294 14.5904 30.6294 14.7547C30.6294 15.0382 30.7428 15.2694 30.961 15.4497C31.1834 15.6315 31.4968 15.7217 31.9054 15.7217C32.1504 15.7217 32.3823 15.6853 32.5997 15.6104C32.8178 15.5363 33.0454 15.409 33.2766 15.228C33.2991 15.3843 33.3399 15.5239 33.3951 15.6351H34.0531C33.976 15.5079 33.9215 15.3719 33.8939 15.2323ZM33.2264 14.1578C33.2264 14.4086 33.1952 14.6027 33.1268 14.73C33.0359 14.8986 32.9 15.0302 32.7088 15.1247C32.5183 15.2193 32.3002 15.2694 32.0595 15.2694C31.8145 15.2694 31.6284 15.22 31.5012 15.1167C31.3739 15.0135 31.3107 14.8863 31.3107 14.7343C31.3107 14.6354 31.3376 14.5453 31.3965 14.4624C31.4561 14.3802 31.5375 14.3184 31.6466 14.2777C31.7556 14.2319 31.9374 14.1949 32.1955 14.1621C32.6542 14.104 32.9996 14.0349 33.2264 13.9484V14.1578ZM37.6352 12.5946C37.5407 12.4754 37.3997 12.3801 37.2136 12.3067C37.0274 12.2326 36.818 12.1955 36.5956 12.1955C36.0779 12.1955 35.6831 12.3801 35.4105 12.7509V12.274H34.8434V15.6475H35.4788V13.8081C35.4788 13.3762 35.5741 13.0839 35.7696 12.9283C35.9645 12.7757 36.1964 12.6971 36.464 12.6971C36.6319 12.6971 36.7773 12.7306 36.9046 12.8004C37.0274 12.8702 37.114 12.9603 37.1634 13.0759C37.2136 13.1908 37.2361 13.3638 37.2361 13.5987V15.6475H37.8672V13.574C37.8672 13.31 37.8534 13.1254 37.8308 13.0185C37.7945 12.8535 37.7312 12.7131 37.636 12.5946H37.6352ZM41.1003 13.8619C40.9229 13.7964 40.6103 13.7056 40.1646 13.5987C39.8564 13.5245 39.6702 13.4751 39.6063 13.4547C39.4972 13.4133 39.4158 13.3638 39.3663 13.302C39.3154 13.2402 39.2885 13.1748 39.2885 13.1006C39.2885 12.9858 39.3525 12.8825 39.4747 12.796C39.6019 12.7095 39.8062 12.6651 40.097 12.6651C40.342 12.6651 40.5282 12.7095 40.6641 12.8084C40.8008 12.9073 40.8822 13.0432 40.9099 13.2155L41.5279 13.1377C41.4864 12.9196 41.4137 12.7466 41.3097 12.615C41.2007 12.4877 41.0407 12.3845 40.819 12.3067C40.6009 12.2282 40.342 12.1911 40.0512 12.1911C39.8564 12.1911 39.6746 12.2158 39.5059 12.2609C39.3387 12.3103 39.2071 12.3642 39.1068 12.4303C38.9759 12.5161 38.8756 12.6237 38.7985 12.7509C38.7207 12.8782 38.6844 13.0141 38.6844 13.1668C38.6844 13.3311 38.7302 13.4831 38.8211 13.619C38.9119 13.755 39.0479 13.8619 39.2253 13.9404C39.4071 14.0182 39.7248 14.1091 40.1879 14.2159C40.5325 14.2937 40.7463 14.3599 40.8328 14.4086C40.9549 14.4835 41.0189 14.586 41.0189 14.714C41.0189 14.8572 40.9506 14.9808 40.8095 15.0884C40.6692 15.1945 40.4555 15.2483 40.1646 15.2483C39.8738 15.2483 39.6521 15.1865 39.4928 15.0673C39.3344 14.9437 39.2384 14.7714 39.202 14.5446L38.5804 14.6354C38.648 14.9931 38.8116 15.2651 39.0617 15.4497C39.3111 15.6315 39.6833 15.7217 40.1646 15.7217C40.4555 15.7217 40.7186 15.6722 40.9498 15.5813C41.1825 15.4912 41.3592 15.3596 41.482 15.1909C41.5998 15.0222 41.6638 14.8412 41.6638 14.6522C41.6638 14.4544 41.6129 14.2937 41.5133 14.1621C41.4137 14.0313 41.2777 13.9317 41.1003 13.8619ZM43.3251 11.5368C43.4022 11.4633 43.5389 11.4263 43.7293 11.4263C43.8471 11.4263 43.97 11.4386 44.1016 11.459L44.1968 10.9609C43.9787 10.9246 43.7839 10.9028 43.6065 10.9028C43.3302 10.9028 43.1164 10.953 42.9623 11.0431C42.8075 11.1376 42.6984 11.2576 42.6395 11.4052C42.5944 11.5164 42.5712 11.6851 42.5712 11.9112V12.2696H42.0128V12.7131H42.5668V15.6395H43.2066V12.7139H43.9336V12.2653H43.2066V11.9526C43.2066 11.7513 43.248 11.6109 43.3251 11.5368ZM47.6212 13.9484C47.6212 13.3929 47.462 12.9611 47.1486 12.6521C46.836 12.3438 46.431 12.1911 45.9316 12.1911C45.419 12.1911 45.0009 12.3474 44.6789 12.6601C44.3561 12.9727 44.1976 13.4133 44.1976 13.9811C44.1976 14.5322 44.3561 14.9561 44.6738 15.2607C44.9915 15.5653 45.4226 15.7173 45.9679 15.7173C46.4041 15.7173 46.7582 15.6228 47.0352 15.4337C47.3115 15.2447 47.5027 14.9772 47.6074 14.6311L46.9582 14.5569C46.8629 14.7954 46.7313 14.9728 46.5539 15.084C46.3903 15.1945 46.1948 15.2483 45.9636 15.2483C45.6546 15.2483 45.3965 15.1495 45.1871 14.9524C44.9828 14.7547 44.8643 14.4704 44.8417 14.1003H47.6161C47.6212 14.0349 47.6212 13.9811 47.6212 13.9484ZM44.8875 13.6314C44.9101 13.3391 45.0184 13.1043 45.2147 12.9276C45.4139 12.7509 45.6546 12.6644 45.9454 12.6644C46.2631 12.6644 46.527 12.7757 46.7262 12.9938C46.8535 13.1334 46.9349 13.3471 46.9625 13.6314H44.8875ZM49.3596 12.3103C49.2374 12.3889 49.1051 12.5452 48.9597 12.7837V12.274H48.3926V15.6431H49.0193V13.8786C49.0193 13.6358 49.0557 13.4133 49.124 13.2119C49.1735 13.0803 49.2513 12.9727 49.3596 12.8993C49.4686 12.8251 49.5959 12.788 49.7326 12.788C49.8867 12.788 50.0408 12.8287 50.1957 12.9116L50.4138 12.3809C50.1906 12.2573 49.9776 12.1955 49.7638 12.1955C49.6184 12.1955 49.4825 12.2318 49.3596 12.3103Z" fill="white"/>
</svg>
