<svg width="54" height="19" viewBox="0 0 54 19" fill="none" xmlns="http://www.w3.org/2000/svg">
<path fill-rule="evenodd" clip-rule="evenodd" d="M0.414062 6.32843C0.414062 11.6759 6.74227 11.4083 7.72233 11.7646C8.96994 12.2102 8.88124 14.4386 6.02831 14.4386C4.51388 14.4386 3.26554 14.2605 1.84053 13.8148C1.48355 13.7254 1.1273 13.5473 0.770315 13.4586V17.469C1.8398 18.0033 5.49394 18.0928 7.0091 18.0928C10.9308 18.0928 14.4955 15.4187 13.5154 11.4083C12.5354 7.04094 6.83097 7.48662 6.02904 7.04094C5.04826 6.59599 5.04826 5.34765 6.11774 4.90197C7.54421 4.27816 10.3964 4.90197 11.8221 5.34765C12.2678 5.5265 12.7135 5.7039 13.0698 5.79333V1.96252C12.446 1.78367 12.0897 1.60554 10.8414 1.33799C9.05937 0.981735 8.34614 0.981735 6.56342 0.981735C3.35497 0.981008 0.414062 3.11998 0.414062 6.32843ZM14.7631 1.87237V17.9139H19.398V13.1009C19.4867 13.279 19.398 13.1903 19.4867 13.3684L19.9324 14.1704C20.1105 14.5266 20.2886 14.8829 20.4675 15.3293C20.6456 15.7749 21.18 17.3795 21.18 17.9139H26.7949C26.7062 17.7358 26.6168 17.3788 26.5274 17.112L25.4586 14.7055C23.2302 10.16 23.6759 12.5665 25.6368 8.73423C25.993 8.19912 26.9731 6.14958 27.0618 5.43635H21.8038C21.6256 6.32771 19.9324 9.26861 19.3972 9.71429V0.981008C18.5066 0.981008 15.4763 1.87237 14.7631 1.87237ZM42.481 1.78294V17.9139H46.9378V0.981008C46.2245 0.981008 43.4618 1.69351 42.481 1.78294ZM48.8979 1.52847V17.6602H53.3547V0.726542C52.8196 0.726542 49.433 1.52847 48.8979 1.52847ZM27.5969 10.7845V17.9146H32.0537V12.5672C32.0537 10.0713 32.4099 9.09121 34.9051 9.09121V5.34765C34.1032 5.34765 34.8164 5.25895 33.4801 5.34765C32.1424 5.5265 31.1623 5.5265 29.7358 6.41713C28.4882 7.21979 27.5969 8.73496 27.5969 10.7845ZM36.2422 17.9146H40.6982V5.5265H36.2422V17.9146ZM36.3316 2.04977C36.3316 2.763 36.4203 3.20868 36.9554 3.74378C38.9163 5.70463 42.0353 2.76227 39.9857 0.624756C38.6487 -0.801709 36.3316 0.445902 36.3316 2.04977Z" fill="white"/>
</svg>
