<svg width="92" height="23" viewBox="0 0 92 23" fill="none" xmlns="http://www.w3.org/2000/svg">
<g opacity="0.5">
<path d="M11.8259 0C18.0249 0 23.0143 4.98941 23.0143 11.3396C23.0143 17.5385 18.0249 22.528 11.8259 22.528C7.74366 22.528 4.41738 20.5624 2.30066 17.3874C4.26619 14.6659 6.08052 11.642 7.74366 8.46688C7.74366 8.46688 7.29007 18.4457 10.7675 18.5969C13.489 19.2017 16.9665 10.7348 16.9665 10.7348C16.6641 10.7348 19.5368 15.7242 20.2928 15.2706C20.5952 15.1194 19.8392 14.0611 19.2344 12.7003C18.6297 11.3396 18.3273 9.52524 18.1761 8.76927C18.0249 7.55972 18.1761 7.10613 17.2689 6.95494C16.5129 6.80375 16.2105 7.40852 15.757 8.46688C14.3962 11.4908 11.8259 16.7826 10.9187 16.6314C9.55799 16.329 9.86038 4.98941 9.86038 4.08225C10.0116 3.17508 9.86038 2.7215 9.2556 2.41911C8.19724 2.41911 7.74366 3.62866 7.44127 4.38464C5.17335 8.31569 3.05663 11.9444 0.939911 14.6659C0.637522 13.6075 0.486328 12.3979 0.486328 11.3396C0.486328 4.98941 5.47574 0 11.8259 0Z" fill="white"/>
<path d="M86.9696 11.9443C86.9696 12.8515 87.1208 13.4563 87.4232 13.7587C87.7256 14.061 88.0279 14.3634 88.6327 14.3634C89.0863 14.3634 89.3887 14.061 89.6911 13.7587C90.1447 13.4563 90.2959 12.8515 90.2959 12.0955C90.2959 11.3395 90.1447 10.7348 89.6911 10.4324C89.3887 9.97879 89.0863 9.8276 88.4815 9.8276C88.0279 9.8276 87.7256 9.97879 87.4232 10.2812C87.1208 10.7348 86.9696 11.3395 86.9696 11.9443ZM86.0624 15.7242H87.1208C87.1208 16.1778 87.272 16.329 87.4232 16.4801C87.7256 16.6313 88.0279 16.7825 88.4815 16.7825C88.9351 16.7825 89.2375 16.6313 89.5399 16.4801C89.8423 16.329 89.9935 16.0266 90.1447 15.7242C90.1447 15.4218 90.1447 14.9682 90.1447 14.3634C89.6911 14.817 89.0863 15.1194 88.4815 15.1194C87.5744 15.1194 86.9696 14.817 86.516 14.2122C86.0624 13.6075 85.9112 12.8515 85.9112 12.0955C85.9112 11.4907 85.9112 11.0372 86.2136 10.4324C86.3648 9.97879 86.6672 9.6764 87.1208 9.37401C87.4232 9.07163 87.8767 8.92043 88.4815 8.92043C89.2375 8.92043 89.8423 9.22282 90.2959 9.8276V9.07163H91.203V14.3634C91.203 15.2706 91.0518 15.8754 90.9006 16.329C90.7494 16.7825 90.4471 17.0849 89.9935 17.2361C89.5399 17.5385 89.0863 17.5385 88.4815 17.5385C87.7256 17.5385 87.1208 17.3873 86.6672 17.0849C86.2136 16.7825 86.0624 16.329 86.0624 15.7242ZM79.7123 15.1194V9.07163H80.6194V9.97879C81.073 9.22282 81.6778 8.92043 82.5849 8.92043C82.8873 8.92043 83.3409 9.07163 83.6433 9.07163C83.9457 9.22282 84.0969 9.37401 84.2481 9.6764C84.3993 9.8276 84.5505 10.13 84.5505 10.4324C84.7017 10.5836 84.7017 10.886 84.7017 11.4907V15.1194H83.6433V11.4907C83.6433 11.0372 83.6433 10.7348 83.4921 10.5836C83.4921 10.2812 83.3409 10.13 83.0385 9.97879C82.8873 9.8276 82.5849 9.8276 82.4338 9.8276C81.9802 9.8276 81.5266 9.97879 81.2242 10.2812C80.9218 10.5836 80.7706 11.0372 80.7706 11.7931V15.1194H79.7123ZM77.1419 15.1194V9.07163H78.2003V15.1194H77.1419ZM77.1419 7.86207V6.80371H78.2003V7.86207H77.1419ZM67.3143 15.1194V9.07163H68.3727V9.97879C68.5239 9.6764 68.6751 9.37401 69.1286 9.22282C69.431 9.07163 69.7334 8.92043 70.187 8.92043C70.6406 8.92043 70.943 9.07163 71.2454 9.22282C71.5478 9.37401 71.699 9.6764 71.8501 9.97879C72.3037 9.22282 72.9085 8.92043 73.6645 8.92043C74.2693 8.92043 74.874 9.07163 75.1764 9.37401C75.4788 9.8276 75.63 10.2812 75.63 11.0372V15.1194H74.5716V11.3395C74.5716 10.886 74.5716 10.5836 74.4205 10.4324C74.4205 10.2812 74.2693 10.13 74.1181 9.97879C73.9669 9.8276 73.6645 9.8276 73.5133 9.8276C73.0597 9.8276 72.7573 9.97879 72.4549 10.2812C72.1525 10.5836 72.0013 11.0372 72.0013 11.6419V15.1194H70.943V11.1883C70.943 10.7348 70.943 10.4324 70.7918 10.13C70.4894 9.97879 70.3382 9.8276 69.8846 9.8276C69.5822 9.8276 69.2798 9.97879 69.1286 10.13C68.8263 10.2812 68.6751 10.4324 68.5239 10.7348C68.5239 11.0372 68.3727 11.4907 68.3727 11.9443V15.1194H67.3143ZM55.37 11.9443C55.37 12.8515 55.5212 13.4563 55.8235 13.7587C56.1259 14.061 56.5795 14.3634 57.0331 14.3634C57.4867 14.3634 57.9403 14.061 58.2427 13.7587C58.545 13.4563 58.6962 12.8515 58.6962 12.0955C58.6962 11.3395 58.545 10.7348 58.2427 10.4324C57.7891 9.97879 57.4867 9.8276 57.0331 9.8276C56.5795 9.8276 56.1259 9.97879 55.8235 10.2812C55.5212 10.7348 55.37 11.3395 55.37 11.9443ZM54.4628 15.7242H55.5212C55.5212 16.1778 55.6724 16.329 55.8235 16.4801C56.1259 16.6313 56.4283 16.7825 56.8819 16.7825C57.3355 16.7825 57.7891 16.6313 57.9403 16.4801C58.2427 16.329 58.3938 16.0266 58.545 15.7242C58.545 15.4218 58.545 14.9682 58.545 14.3634C58.0915 14.817 57.6379 15.1194 56.8819 15.1194C56.1259 15.1194 55.37 14.817 54.9164 14.2122C54.4628 13.6075 54.3116 12.8515 54.3116 12.0955C54.3116 11.4907 54.4628 11.0372 54.614 10.4324C54.7652 9.97879 55.0676 9.6764 55.5212 9.37401C55.9747 9.07163 56.4283 8.92043 56.8819 8.92043C57.6379 8.92043 58.2427 9.22282 58.6962 9.8276V9.07163H59.6034V14.3634C59.6034 15.2706 59.6034 15.8754 59.301 16.329C59.1498 16.7825 58.8474 17.0849 58.3938 17.2361C58.0915 17.5385 57.4867 17.5385 56.8819 17.5385C56.1259 17.5385 55.5212 17.3873 55.2188 17.0849C54.7652 16.7825 54.4628 16.329 54.4628 15.7242ZM48.8686 12.0955C48.8686 12.8515 49.0198 13.4563 49.3222 13.9098C49.6246 14.2122 50.0782 14.3634 50.6829 14.3634C51.1365 14.3634 51.5901 14.2122 51.8925 13.9098C52.1949 13.4563 52.4973 12.8515 52.4973 12.0955C52.4973 11.3395 52.1949 10.7348 51.8925 10.4324C51.5901 9.97879 51.1365 9.8276 50.6829 9.8276C50.0782 9.8276 49.6246 9.97879 49.3222 10.4324C49.0198 10.7348 48.8686 11.3395 48.8686 12.0955ZM47.8102 12.0955C47.8102 11.0372 48.1126 10.13 48.7174 9.6764C49.3222 9.22282 49.927 8.92043 50.6829 8.92043C51.4389 8.92043 52.1949 9.22282 52.6485 9.8276C53.2532 10.2812 53.5556 11.0372 53.5556 12.0955C53.5556 12.8515 53.4044 13.4563 53.102 13.9098C52.9509 14.3634 52.4973 14.6658 52.0437 14.9682C51.5901 15.1194 51.1365 15.2706 50.6829 15.2706C49.7758 15.2706 49.171 14.9682 48.5662 14.5146C48.1126 13.9098 47.8102 13.1539 47.8102 12.0955ZM44.3328 15.1194V9.07163H45.2399V9.97879C45.3911 9.52521 45.6935 9.22282 45.8447 9.22282C45.9959 9.07163 46.2983 8.92043 46.4495 8.92043C46.9031 8.92043 47.2055 9.07163 47.5079 9.22282L47.2055 10.2812C46.9031 10.13 46.7519 9.97879 46.4495 9.97879C46.2983 9.97879 45.9959 10.13 45.8447 10.2812C45.6935 10.2812 45.5423 10.5836 45.3911 10.7348C45.3911 11.1883 45.2399 11.4907 45.2399 11.9443V15.1194H44.3328ZM42.3672 12.8515L43.4256 13.0027C43.2744 13.7587 42.972 14.3634 42.5184 14.6658C42.0649 15.1194 41.4601 15.2706 40.8553 15.2706C40.0993 15.2706 39.3434 14.9682 38.8898 14.5146C38.4362 13.9098 38.1338 13.1539 38.1338 12.0955C38.1338 11.4907 38.285 10.886 38.4362 10.4324C38.5874 9.97879 39.041 9.52521 39.4946 9.37401C39.9481 9.07163 40.4017 8.92043 40.8553 8.92043C41.6113 8.92043 42.0649 9.07163 42.5184 9.37401C42.972 9.8276 43.1232 10.2812 43.2744 10.886L42.3672 11.0372C42.2161 10.5836 42.0649 10.2812 41.7625 10.13C41.6113 9.8276 41.3089 9.8276 40.8553 9.8276C40.4017 9.8276 39.9481 9.97879 39.6458 10.2812C39.3434 10.7348 39.1922 11.3395 39.1922 12.0955C39.1922 12.8515 39.3434 13.4563 39.6458 13.9098C39.9481 14.2122 40.4017 14.3634 40.8553 14.3634C41.3089 14.3634 41.6113 14.3634 41.9137 14.061C42.2161 13.7587 42.3672 13.4563 42.3672 12.8515ZM35.8659 15.1194V9.07163H36.7731V15.1194H35.8659ZM35.8659 7.86207V6.80371H36.7731V7.86207H35.8659ZM26.1895 15.1194V6.80371H27.8526L29.8181 12.7003C29.9693 13.3051 30.1205 13.6075 30.2717 13.9098C30.2717 13.6075 30.4229 13.1539 30.7253 12.5491L32.6908 6.80371H34.2028V15.1194H33.1444V8.16446L30.5741 15.1194H29.6669L27.2478 8.01327V15.1194H26.1895ZM61.7201 11.9443C61.7201 12.8515 61.8713 13.4563 62.1737 13.7587C62.4761 14.061 62.9297 14.3634 63.3833 14.3634C63.8368 14.3634 64.1392 14.061 64.5928 13.7587C64.8952 13.4563 65.0464 12.8515 65.0464 12.0955C65.0464 11.3395 64.8952 10.7348 64.4416 10.4324C64.1392 9.97879 63.8368 9.8276 63.3833 9.8276C62.9297 9.8276 62.4761 9.97879 62.1737 10.2812C61.8713 10.7348 61.7201 11.3395 61.7201 11.9443ZM65.0464 14.3634C64.8952 14.5146 64.2904 14.9682 63.6856 15.1194C63.5345 15.1194 63.3833 15.1194 63.2321 15.1194C62.4761 15.1194 61.7201 14.817 61.2665 14.2122C60.813 13.6075 60.6618 12.8515 60.6618 12.0955C60.6618 11.4907 60.6618 11.0372 60.9642 10.4324C61.1153 9.97879 61.4177 9.6764 61.8713 9.37401C62.1737 9.07163 62.7785 8.92043 63.2321 8.92043C63.988 8.92043 64.5928 9.22282 65.0464 9.8276V9.07163H65.9536V11.1883V12.7003C65.9536 13.6075 65.9536 14.2122 65.9536 14.3634C66.1048 14.6658 66.1048 14.9682 66.256 15.1194H65.1976C65.0464 14.9682 65.0464 14.6658 65.0464 14.3634Z" fill="white"/>
</g>
</svg>
