<svg width="216" height="50" viewBox="0 0 216 50" fill="none" xmlns="http://www.w3.org/2000/svg">
<path d="M108 1H26.6532L2 25L26.6532 49H108" stroke="#BF3E1A" stroke-width="2"/>
<path d="M108 1H189.347L214 25L189.347 49H108" stroke="#BF3E1A" stroke-width="2"/>
</svg>
